import 'package:flutter/material.dart';
import 'package:cool_ui/cool_ui.dart';
class TestKeyboard extends StatelessWidget{
  static const CKTextInputType inputType = const CKTextInputType(name:'CKTestKeyboard');
  static double getHeight(BuildContext ctx){
    MediaQueryData mediaQuery = MediaQuery.of(ctx);
    return mediaQuery.size.width / 3 / 2 * 2;
  }
  final KeyboardController controller ;
  const TestKeyboard({this.controller});

  static register(){
    CoolKeyboard.addKeyboard(TestKeyboard.inputType,KeyboardConfig(builder: (context,controller, params){
      return TestKeyboard(controller: controller);
    },getHeight: TestKeyboard.getHeight));
  }


  @override
  Widget build(BuildContext context) {
    MediaQueryData mediaQuery = MediaQuery.of(context);
    return Material(
      child: DefaultTextStyle(style: TextStyle(fontWeight: FontWeight.w500,color: Colors.black,fontSize: 23.0), child: Container(
        height:getHeight(context),
        width: mediaQuery.size.width,
        decoration: BoxDecoration(
          color: Color(0xffafafaf),
        ),
        child: GridView.count(
            childAspectRatio: 2/1,
            mainAxisSpacing:0.5,
            crossAxisSpacing:0.5,
            padding: EdgeInsets.all(0.0),
            crossAxisCount: 3,
            children: <Widget>[
              buildButton('A'),
              buildButton('B'),
              buildButton('C'),
              buildButton('D'),
              buildButton('E'),
              buildButton('F'),
              buildButton('G'),
              buildButton('H'),
              buildButton('J'),
              Container(
                color: Color(0xFFd3d6dd),
                child: GestureDetector(
                  behavior: HitTestBehavior.translucent,
                  child: Center(child: Icon(Icons.expand_more),),
                  onTap: (){
                    controller.doneAction();
                  },
                ),
              ),
              buildButton('0'),
              Container(
                color: Color(0xFFd3d6dd),
                child: GestureDetector(
                  behavior: HitTestBehavior.translucent,
                  child: Center(child: Text('X'),),
                  onTap: (){
                    controller.deleteOne();
                  },
                ),
              ),
            ]),
      )),
    );
  }

  Widget buildButton(String title,{String value}){
    if(value == null){
      value = title;
    }
    return Container(
      color: Colors.white,
      child: GestureDetector(
        behavior: HitTestBehavior.translucent,
        child: Center(child: Text(title),),
        onTap: (){
          controller.addText(value);
        },
      ),
    );
  }
}